{
  "LMEPortal_Sheet_Link": "https://docs.google.com/spreadsheets/d/1IzpGqVIKDqeb-QwqQL5E5uX6u32-stge46vpdCNz4lk/edit#gid=277447040",
  "LMEPortal_Input_Tab_Name": "LME Input",
  "LMEPortal_Output_Tab_Name": "LME Details",
  "NICPortal_Sheet_Link": "https://docs.google.com/spreadsheets/d/1QfbGCCbT3ju6_cOS84xoqsaYxuwG7JqCYH-RGihURUI/edit#gid=494796437",
  "NICPortal_Input_Tab_Name": "NIC In",
  "NICPortal_Output_Tab_Name": "NIC Tender Out"

}