{
  "type": "service_account",
  "project_id": "first-project-335811",
  "private_key_id": "56687a909acabfd31a590d236d9b13aa87cda4a2",
  "private_key": "-----BEGIN PRIVATE KEY-----\nMIIEvAIBADANBgkqhkiG9w0BAQEFAASCBKYwggSiAgEAAoIBAQCJQ5dqnNwzKoFE\n1HW2+5xsDNdJysdWwy9SCplTmZDv2KM8VWqemAUZvHlmoZDG9ZTBV8wB0yWcr2ys\nDDoduSXCfIFkfywKcPAfNlH3V2h3naOhwcAKxvxwt/A8tZ42uP1RG2SPvpuF9/SA\nVRDd8qKRecUnEqmhwVZaMBspcj/lDtYJQTMSG7FC5AZN2AFTqBLVbLg9iys3dJY/\nBaMCvw2U0UdDePgK1mU4q8kIKWjBmFbZCBIlkodKwCPoAF5VcQiluwaFC9g+YgE+\noRxo0wE3qrGuqsbvcWs3HNotR4w0mid7kkxt74Ak68zZiNh4zbba42fEq+7v0NFT\ngVfky+cNAgMBAAECggEABMHFTmCMd2/fQvwwVPZE5km1PE1wUxI4lZmtO2rbAJtI\nk1Kyeze+SLU+nJvrLiBco2BGvz/XnqWsGNpKBhwTsh9c38q4dmdexI++KQ0Fn2X+\nW1Pt/9gD75p9E0PubVJD4e4WshSWkMuWOzK3fuzMGkm9PcY1ZfGshTudjvYl2Lfg\nTooq5n4lJ6wzbobhMR43XKPfQFodGXYHZcM/2/laXXHAurtpZuhTWdkiStL2bxvl\nvzpbbh0NHM8ooKGgDw754sECJBeR2cMxPsn9FweQ9OFP/5CjKRYHm+uKJk13zukA\ne9eyyjX/FtivC8bYeol3KF56DuZENny+rJnIVPSLUQKBgQDBNiA5p++GXjgmGCRI\n792bFxBSX+IOreQmUpyTW22Fsu23Cs2dKIgpqfiBpLx7pu/YmEdjVqpL/Soy36+U\niHcbjs7G/lYEtOAyoisQw5LTnW54OBnCdmI0HCFX70egyGYnKR3dhKnGFkheiLz2\n4rp0gZHmpQtyRUk+t/qs1RVPOwKBgQC13wXwxh7zrt2pcCTUErPHw/KjP4Y7PnVg\n+nMRXT2E87rUsqgvEbjVJZg2FHkjVbqcjzDrK7sNYDiKh6foSskgYhIzOpeUck4o\n688mT9+a12MUe9Ckg+0kT2DmZYnTe/tw8VGCn8iCxsvirTDBa0ttEHR9ADXSmxeg\ntABi4p5OVwKBgCC0Ha5Eq7ltt0lTasjhuPvoYn3e9u+PJYALGa+jmR05VR1Xecgx\nNSMAPy0KilDPx+c8l1DMOZUVLBBiZmDY3HhQqtVp9XtkdlJ7uphi0jZ5flpg/JM6\n4JJ7dHVi7hfb89aLEiANtYLvAJ7nvDx50h+oUt7cbtyPt78i+w5IHwxDAoGAfi+q\ncH8V9J9MPoaHlvkO8bibvfaSTMKuMEY01kRqLbfp1i/LDzVtl73I2STlU8Xkf0G+\ngDzMQKCVOlCbCEnzOFuzIwYxK5cPcccC6CMdEtMEdK7feXXrcHj+03x531kzgQ5+\nLnJsbYg+6BygKmMmZxq2qBAgR+rBvweFCRcRHWsCgYB3codTpybnphHbNjJ68GF9\npgBaFngyh4aog6RXzif3m7rlQ+es13qidfdweE7BZjJCoZoJUVK6GCZzgtPZDWQM\nDpA+vydGYSHotil1OPrT177/ZaeETYBw85iX6wrqoZg/WnrD2O5qOZf+0L9mfTMq\nbbvvaS29QemU63KSeXVL0g==\n-----END PRIVATE KEY-----\n",
  "client_email": "alok-672@first-project-335811.iam.gserviceaccount.com",
  "client_id": "115494543457838625777",
  "auth_uri": "https://accounts.google.com/o/oauth2/auth",
  "token_uri": "https://oauth2.googleapis.com/token",
  "auth_provider_x509_cert_url": "https://www.googleapis.com/oauth2/v1/certs",
  "client_x509_cert_url": "https://www.googleapis.com/robot/v1/metadata/x509/alok-672%40first-project-335811.iam.gserviceaccount.com"
}
